1.0 0.5 0.0     0.0 0.0 0.0   0.0 1.0 0.0   1.0 1.0 1.0
4.0 0.0 0.0     0.0 -5.0 0.0    0.0 1.0 0.0   30.0 1.0 30.0
-1.0 0.3 0.0     -1.0 -1.0 -1.0   -1.0 0.0 0.0   1.0 1.0 1.0
-1.0 0.3 0.0     1.0 -1.0 -1.0   -1.0 0.0 0.0   1.0 1.0 1.0
-1.0 0.3 0.0     0.0 -1.0 0.73   -1.0 0.0 0.0   1.0 1.0 1.0
-1.0 0.3 0.0     0.0 0.41 0.0   0.0 1.0 0.0   1.0 1.0 1.0
-7.0 0.0 0.0     0.0 -3.0 0.0   0.0 -1.0 0.0   1.0 2.0 1.0
-5.0 0.5 0.0    0.0 -1.5 0.0    0.0 1.0 0.0   2.0 0.5 2.0